<?xml version="1.0" encoding="UTF-8" standalone="no"?>
<!-- Created with Inkscape (http://www.inkscape.org/) -->

<svg
   xmlns:dc="http://purl.org/dc/elements/1.1/"
   xmlns:cc="http://creativecommons.org/ns#"
   xmlns:rdf="http://www.w3.org/1999/02/22-rdf-syntax-ns#"
   xmlns:svg="http://www.w3.org/2000/svg"
   xmlns="http://www.w3.org/2000/svg"
   xmlns:sodipodi="http://sodipodi.sourceforge.net/DTD/sodipodi-0.dtd"
   xmlns:inkscape="http://www.inkscape.org/namespaces/inkscape"
   width="128"
   height="128"
   viewBox="0 0 33.866666 33.866668"
   version="1.1"
   id="svg8"
   inkscape:version="0.92.4 5da689c313, 2019-01-14"
   sodipodi:docname="text-x-cpp-symbolic.svg">
  <defs
     id="defs2" />
  <sodipodi:namedview
     id="base"
     pagecolor="#ffffff"
     bordercolor="#666666"
     borderopacity="1.0"
     inkscape:pageopacity="0.0"
     inkscape:pageshadow="2"
     inkscape:zoom="11.2"
     inkscape:cx="54.048717"
     inkscape:cy="66.808871"
     inkscape:document-units="px"
     inkscape:current-layer="layer1"
     showgrid="false"
     units="px"
     inkscape:window-width="3840"
     inkscape:window-height="2010"
     inkscape:window-x="0"
     inkscape:window-y="0"
     inkscape:window-maximized="1" />
  <metadata
     id="metadata5">
    <rdf:RDF>
      <cc:Work
         rdf:about="">
        <dc:format>image/svg+xml</dc:format>
        <dc:type
           rdf:resource="http://purl.org/dc/dcmitype/StillImage" />
        <dc:title />
      </cc:Work>
    </rdf:RDF>
  </metadata>
  <g
     inkscape:label="Layer 1"
     inkscape:groupmode="layer"
     id="layer1"
     transform="translate(0,-263.13332)">
    <g
       aria-label="++"
       style="font-style:normal;font-weight:normal;font-size:10.58333397px;line-height:1.25;font-family:sans-serif;letter-spacing:0px;word-spacing:0px;fill:#333333;fill-opacity:1;stroke:none;stroke-width:0.26458335"
       id="text1459"
       transform="matrix(1.9628099,0,0,1.9628099,34.825009,-240.11209)">
      <path
         d="m -7.8542506,265.51815 h 4.466167 v 2.10608 h 0.8255 v -2.10608 h 2.07433346 v -0.74084 H -2.5625836 v -2.10608 h -0.8255 v 2.10608 h -4.466167 v -2.10608 h -0.8255 v 2.10608 h -2.0531664 v 0.74084 h 2.0531664 v 2.10608 h 0.8255 z"
         style="font-style:normal;font-variant:normal;font-weight:normal;font-stretch:normal;font-family:'Fira Code';-inkscape-font-specification:'Fira Code';fill:#333333;stroke-width:0.26458335"
         id="path1461"
         inkscape:connector-curvature="0" />
    </g>
    <g
       aria-label="C"
       style="font-style:normal;font-weight:normal;font-size:10.58333397px;line-height:1.25;font-family:sans-serif;letter-spacing:0px;word-spacing:0px;fill:#333333;fill-opacity:1;stroke:none;stroke-width:0.26458335"
       id="text1466"
       transform="matrix(3.7974684,0,0,3.7974684,46.180318,-738.75423)">
      <path
         d="m -9.0387335,264.52712 c -1.6827505,0 -3.1220835,1.30175 -3.1220835,3.75709 0,2.45533 1.386417,3.76766 3.1644168,3.76766 1.0371667,0 1.7356668,-0.35983 2.1801668,-0.79375 l -0.47625,-0.59266 c -0.3915834,0.30691 -0.8784168,0.60325 -1.6933335,0.60325 -1.2488331,0 -2.2119171,-0.81492 -2.2119171,-2.9845 0,-2.22251 1.037167,-2.98451 2.2225005,-2.98451 0.5609167,0 1.0689167,0.14817 1.5345834,0.53975 l 0.5185834,-0.60325 c -0.5820834,-0.45508 -1.1641668,-0.70908 -2.1166668,-0.70908 z"
         style="font-style:normal;font-variant:normal;font-weight:normal;font-stretch:normal;font-family:'Fira Code';-inkscape-font-specification:'Fira Code';fill:#333333;stroke-width:0.26458335"
         id="path1468"
         inkscape:connector-curvature="0" />
    </g>
  </g>
</svg>
